<?xml version="1.0" encoding="UTF-8" standalone="no"?>
<!-- Created with Inkscape (http://www.inkscape.org/) -->

<svg
   xmlns:dc="http://purl.org/dc/elements/1.1/"
   xmlns:cc="http://creativecommons.org/ns#"
   xmlns:rdf="http://www.w3.org/1999/02/22-rdf-syntax-ns#"
   xmlns:svg="http://www.w3.org/2000/svg"
   xmlns="http://www.w3.org/2000/svg"
   xmlns:sodipodi="http://sodipodi.sourceforge.net/DTD/sodipodi-0.dtd"
   xmlns:inkscape="http://www.inkscape.org/namespaces/inkscape"
   width="118.93554"
   height="54.7379"
   id="svg3949"
   version="1.1"
   inkscape:version="0.48.4 r9939"
   sodipodi:docname="2013Taiwan(UbuntuFont)_PYCON(SignikaFont_modified).svg"
   inkscape:export-filename="C:\Users\Jenny\Dropbox\pycontw_logo\2013Taiwan(UbuntuFont)_PYCON(SignikaFont_modified).png"
   inkscape:export-xdpi="605.51337"
   inkscape:export-ydpi="605.51337">
  <defs
     id="defs3951" />
  <sodipodi:namedview
     id="base"
     pagecolor="#ffffff"
     bordercolor="#666666"
     borderopacity="1.0"
     inkscape:pageopacity="0.0"
     inkscape:pageshadow="2"
     inkscape:zoom="4.2806119"
     inkscape:cx="126.05155"
     inkscape:cy="14.598568"
     inkscape:document-units="px"
     inkscape:current-layer="layer1"
     showgrid="true"
     fit-margin-top="0"
     fit-margin-left="0"
     fit-margin-right="0"
     fit-margin-bottom="0"
     inkscape:window-width="1600"
     inkscape:window-height="838"
     inkscape:window-x="-8"
     inkscape:window-y="-8"
     inkscape:window-maximized="1"
     gridtolerance="10">
    <inkscape:grid
       type="xygrid"
       id="grid4174"
       empspacing="5"
       visible="true"
       enabled="true"
       snapvisiblegridlinesonly="true"
       originx="-1.0406707px"
       originy="1.0000017px" />
  </sodipodi:namedview>
  <metadata
     id="metadata3954">
    <rdf:RDF>
      <cc:Work
         rdf:about="">
        <dc:format>image/svg+xml</dc:format>
        <dc:type
           rdf:resource="http://purl.org/dc/dcmitype/StillImage" />
        <dc:title></dc:title>
      </cc:Work>
    </rdf:RDF>
  </metadata>
  <g
     inkscape:label="Layer 1"
     inkscape:groupmode="layer"
     id="layer1"
     transform="translate(-305.55993,-506.15051)">
    <g
       transform="matrix(1.25,0,0,-1.25,318.80926,553.90091)"
       id="g46" />
    <path
       style="fill:#2288a1;fill-opacity:1;fill-rule:nonzero;stroke:none"
       d="M 8,21.0625 2.6875,24.84375 C 2.5,24.97625 2.31375,25.09375 2.21875,25.3125 2.0825,25.62375 2.2612,25.9925 2.375,26.28125 L 3.53125,29.1875 C 3.61375,29.4 3.66,29.575 3.90625,29.625 4.29875,29.705 4.64,29.365 4.9375,29.15625 L 8,27 l 3.0625,2.15625 c 0.2975,0.20875 0.63875,0.54875 1.03125,0.46875 0.2475,-0.05 0.2912,-0.225 0.375,-0.4375 L 13.625,26.28125 C 13.73755,25.9925 13.9175,25.62375 13.78125,25.3125 13.68625,25.09375 13.5,24.97625 13.3125,24.84375 L 8,21.0625 z"
       transform="translate(304.51926,504.83596)"
       id="path72"
       inkscape:connector-curvature="0" />
    <g
       transform="matrix(1.25,0,0,-1.25,312.51926,539.88841)"
       id="g78" />
    <path
       style="fill:#2288a1;fill-opacity:1;fill-rule:nonzero;stroke:none"
       d="m 8,35.0625 -5.3125,3.75 C 2.5,38.94625 2.31375,39.09375 2.21875,39.3125 2.0825,39.62375 2.2612,39.99375 2.375,40.28125 L 3.53125,43.1875 C 3.61375,43.4 3.66,43.575 3.90625,43.625 4.29875,43.705 4.64,43.36625 4.9375,43.15625 L 8,41 l 3.0625,2.15625 c 0.2975,0.21 0.63875,0.54875 1.03125,0.46875 0.2475,-0.05 0.2912,-0.225 0.375,-0.4375 L 13.625,40.28125 c 0.11255,-0.2875 0.2925,-0.6575 0.15625,-0.96875 C 13.68625,39.09375 13.5,38.94625 13.3125,38.8125 11.72384,37.6857 9.78746,36.33035 8,35.0625 z"
       transform="translate(304.51926,504.83596)"
       id="path4181"
       inkscape:connector-curvature="0" />
    <path
       inkscape:connector-curvature="0"
       id="path84"
       d="m 317.06551,547.25966 -4.54625,-7.37125 0,2.9475 0,-2.9475 -4.54625,7.37125 -1.74375,6.64125 c -0.10875,0.415 -0.31875,0.8925 -0.2425,1.30625 0.165,0.90125 0.705,1.2925 1.48375,1.66125 l 3.68375,1.74875 c 0.36375,0.1725 0.67875,0.3475 1.06625,0.445 0.6325,0.15625 1.11125,-0.18375 1.65875,-0.4425 l 3.68875,-1.75125 c 0.77875,-0.36875 1.31875,-0.76 1.48375,-1.66125 0.075,-0.41375 -0.13375,-0.89125 -0.2425,-1.30625 -0.58125,-2.21375 -1.1625,-4.4275 -1.74375,-6.64125 z"
       style="fill:#2288a1;fill-opacity:1;fill-rule:nonzero;stroke:none"
       sodipodi:nodetypes="ccccccccccccccc" />
    <path
       style="fill:#e64240;fill-opacity:1;fill-rule:nonzero;stroke:none"
       d="M 8,28.0625 2.6875,31.84375 C 2.5,31.975 2.31375,32.09375 2.21875,32.3125 2.0825,32.62375 2.2612,32.995 2.375,33.28125 L 3.53125,36.1875 C 3.61375,36.4 3.66,36.575 3.90625,36.625 4.29875,36.7062 4.64,36.36625 4.9375,36.15625 L 8,34 l 3.0625,2.15625 c 0.2975,0.21 0.63875,0.54995 1.03125,0.46875 0.2475,-0.05 0.2912,-0.225 0.375,-0.4375 L 13.625,33.28125 C 13.73755,32.995 13.9175,32.62375 13.78125,32.3125 13.68625,32.09375 13.5,31.975 13.3125,31.84375 L 8.625,28.5 C 8.42125,28.355 8.20375,28.2075 8,28.0625 z"
       transform="translate(304.51926,504.83596)"
       id="path88"
       inkscape:connector-curvature="0" />
    <g
       transform="matrix(1.25,0,0,-1.25,312.51926,517.88841)"
       id="g94">
      <path
         style="fill:#e64240;fill-opacity:1;fill-rule:nonzero;stroke:none"
         d="m 8,13.0625 -6.34375,4.5 C 1.43375,17.71875 1.2075,17.86625 1.09375,18.125 0.9325,18.4975 1.1775,18.93875 1.3125,19.28125 L 2.65625,22.75 C 2.755,23.00375 2.83,23.22125 3.125,23.28125 c 0.46875,0.095 0.86375,-0.31375 1.21875,-0.5625 L 8,20.15625 l 3.65625,2.5625 c 0.355,0.24875 0.74875,0.6575 1.21875,0.5625 0.29375,-0.06 0.37005,-0.2775 0.46875,-0.53125 l 1.34375,-3.46875 c 0.1362,-0.3425 0.38,-0.78375 0.21875,-1.15625 -0.11375,-0.25875 -0.34,-0.40625 -0.5625,-0.5625 L 8,13.0625 z"
         transform="matrix(0.8,0,0,-0.8,-6.4,10.44196)"
         id="path96"
         inkscape:connector-curvature="0" />
    </g>
    <g
       transform="matrix(1.25,0,0,-1.25,312.60801,560.88841)"
       id="g106">
      <path
         inkscape:connector-curvature="0"
         id="path108"
         style="fill:#3c829d;fill-opacity:1;fill-rule:nonzero;stroke:none"
         d="M 0,0 -0.406,0" />
    </g>
    <g
       transform="matrix(1.25,0,0,-1.25,312.60801,560.88841)"
       id="g114">
      <path
         inkscape:connector-curvature="0"
         id="path116"
         style="fill:#3c829d;fill-opacity:1;fill-rule:nonzero;stroke:none"
         d="M 0,0 0.406,0" />
    </g>
    <path
       style="fill:#e64240;fill-opacity:1;fill-rule:nonzero;stroke:none"
       d="M 6.9375 2.0625 L 6.53125 2.125 L 6.53125 5.15625 C 6.12625 5.77625 3.03125 7.36 3.03125 9.3125 C 3.03125 11.26625 4.875 13.21875 4.875 13.21875 L 6.9375 13.21875 L 9.03125 13.21875 C 9.03125 13.21875 10.875 11.26625 10.875 9.3125 C 10.875 7.36 7.75 5.77625 7.34375 5.15625 L 7.34375 2.125 L 6.9375 2.0625 z "
       id="path120"
       transform="translate(305.55993,506.15051)" />
    <g
       transform="matrix(1.25,0,0,-1.25,311.64995,515.50471)"
       id="g126">
      <path
         inkscape:connector-curvature="0"
         id="path128"
         style="fill:#ffffff;fill-opacity:1;fill-rule:nonzero;stroke:none"
         d="m 0,0 c -0.11,-0.387 -0.389,-0.64 -0.626,-0.579 -0.347,0.09 -0.406,0.477 -0.295,0.864 0.11,0.387 0.59,0.588 0.745,0.588 C -0.048,0.873 0.111,0.387 0,0" />
    </g>
    <g
       transform="matrix(1.25,0,0,-1.25,313.4987,515.50471)"
       id="g130">
      <path
         inkscape:connector-curvature="0"
         id="path132"
         style="fill:#ffffff;fill-opacity:1;fill-rule:nonzero;stroke:none"
         d="m 0,0 c 0.11,-0.387 0.389,-0.64 0.626,-0.579 0.347,0.09 0.406,0.477 0.295,0.864 C 0.811,0.672 0.332,0.873 0.176,0.873 0.049,0.873 -0.11,0.387 0,0" />
    </g>
    <g
       transform="matrix(1.25,0,0,-1.25,312.89445,511.31096)"
       id="g176">
      <path
         inkscape:connector-curvature="0"
         id="path178"
         style="fill:#e64240;fill-opacity:1;fill-rule:nonzero;stroke:none"
         d="m 0,0 -0.6,0 0,2.281 c 0,0 -1.868,1.771 -1.868,1.839 0,0.068 0.813,-0.411 1.107,-0.586 C -1.085,3.37 -0.809,3.204 -0.533,3.04 -0.469,3.002 -0.41,2.952 -0.339,2.926 -0.247,2.893 -0.186,2.922 -0.105,2.971 0.001,3.034 0.107,3.097 0.214,3.16 0.51,3.337 0.807,3.515 1.103,3.691 1.37,3.85 1.951,4.178 1.951,4.122 1.951,4.066 0,2.189 0,2.189 L 0,0 z" />
    </g>
    <text
       xml:space="preserve"
       style="font-size:16.70790291px;font-style:normal;font-variant:normal;font-weight:normal;font-stretch:normal;text-align:end;line-height:125%;letter-spacing:-0.46420562px;word-spacing:0px;text-anchor:end;fill:#393536;fill-opacity:1;stroke:none;font-family:Liberation Mono;-inkscape-font-specification:Liberation Mono"
       x="402.26535"
       y="550.44934"
       id="text4195"
       sodipodi:linespacing="125%"
       transform="scale(1.0485867,0.95366455)"><tspan
         sodipodi:role="line"
         id="tspan4197"
         x="401.80115"
         y="550.44934"
         dx="0"
         style="font-style:normal;font-variant:normal;font-weight:normal;font-stretch:normal;letter-spacing:-0.46420562px;font-family:Ubuntu;-inkscape-font-specification:Ubuntu">2013 Taiwan</tspan></text>
    <g
       transform="matrix(1.0529459,0,0,0.92717398,3.687082,5.7284215)"
       style="font-size:37.47382736px;font-style:normal;font-weight:normal;text-align:end;line-height:125%;letter-spacing:-2.1400001px;word-spacing:0px;text-anchor:end;fill:#2288a1;fill-opacity:1;stroke:none;font-family:Sans"
       id="text3017-3-1-5">
      <path
         d="m 399.39707,566.55025 -1.31157,0 c -0.79399,-0.007 -1.3514,0.18505 -1.67225,0.57615 -0.32088,0.39115 -0.47546,1.02351 -0.46373,1.89709 l 0,9.33086 c 7.6e-4,1.33734 0.0273,2.85969 0.0796,4.56706 0.0523,1.70739 0.12567,3.33279 0.22016,4.87622 l -0.1499,0.0375 c -0.35601,-0.77679 -0.74011,-1.63087 -1.1523,-2.56225 -0.41223,-0.93136 -0.85254,-1.88849 -1.32094,-2.87139 l -7.90687,-15.70133 c -0.41144,-0.0554 -0.84394,-0.0944 -1.29752,-0.11711 -0.45359,-0.0226 -0.82051,-0.0335 -1.10078,-0.0328 -0.27168,8e-4 -0.64642,0.018 -1.1242,0.0515 -0.47779,0.0336 -0.88999,0.0789 -1.23662,0.13584 l 0,25.55682 c 0.32399,0.0554 0.65032,0.0945 0.97899,0.11711 0.32867,0.0226 0.6269,0.0336 0.89468,0.0328 0.26387,7.8e-4 0.55116,-0.0102 0.86189,-0.0328 0.31071,-0.0226 0.63547,-0.0617 0.9743,-0.11711 l 0,-11.69168 c -0.005,-1.45052 -0.0422,-3.00878 -0.11242,-4.6748 -0.0703,-1.66598 -0.14521,-3.16804 -0.22484,-4.50617 l 0.1499,-0.0375 c 0.33725,0.78852 0.70261,1.61918 1.09609,2.49197 0.39346,0.87284 0.81504,1.77844 1.26473,2.71682 l 7.98182,15.70133 c 0.41375,0.0554 0.85094,0.0945 1.31157,0.11711 0.46059,0.0226 0.82283,0.0336 1.08672,0.0328 0.27323,-7.8e-4 0.6542,-0.018 1.14294,-0.0515 0.48869,-0.0336 0.90715,-0.0788 1.25536,-0.13584 l 0,-25.51935 z"
         style="font-variant:normal;font-stretch:normal;fill:#2288a1;font-family:Signika;-inkscape-font-specification:Signika"
         id="path3023"
         inkscape:connector-curvature="0" />
    </g>
    <path
       inkscape:connector-curvature="0"
       id="path3018"
       style="font-size:37.47382736px;font-style:normal;font-variant:normal;font-weight:normal;font-stretch:normal;text-align:start;line-height:125%;letter-spacing:-2.1400001px;word-spacing:0px;text-anchor:start;fill:#2288a1;fill-opacity:1;stroke:none;font-family:Signika;-inkscape-font-specification:Signika"
       d="m 376.00009,539.3577 c 0.32633,0.0695 0.62061,0.12162 0.88286,0.15635 0.2622,0.0348 0.54663,0.0521 0.85327,0.0521 0.84091,-0.008 1.44756,-0.19977 1.81997,-0.57328 0.37235,-0.37349 0.55485,-0.87728 0.54747,-1.51138 -0.0288,-1.81755 -0.87877,-3.38538 -2.54993,-4.70351 -1.6712,-1.31809 -3.99097,-2.00863 -6.95931,-2.07163 -2.98808,-0.0224 -5.51499,0.96924 -7.58075,2.97498 -2.06576,2.00578 -3.14262,5.16027 -3.23057,9.46348 -0.0129,2.0866 0.31541,4.05158 0.98497,5.89495 0.66955,1.84338 1.75779,3.34511 3.26474,4.50518 1.50692,1.16008 3.50999,1.75845 6.00921,1.79513 2.05342,-0.0253 3.93422,-0.36554 5.64241,-1.02062 1.70816,-0.65507 3.11547,-1.47301 4.22194,-2.45382 -0.15127,-0.44732 -0.4209,-0.89032 -0.80887,-1.32896 -0.38803,-0.43865 -0.81548,-0.79478 -1.28237,-1.06839 -1.14264,0.83965 -2.30005,1.48821 -3.47225,1.94568 -1.17223,0.45747 -2.3691,0.68909 -3.59062,0.69489 -2.06824,-0.0152 -3.67284,-0.79261 -4.81381,-2.33221 -1.14098,-1.53961 -1.71969,-3.75021 -1.73613,-6.63183 0.004,-3.08426 0.53843,-5.42806 1.60297,-7.03138 1.06451,-1.60328 2.63458,-2.40964 4.71022,-2.41907 2.09781,0.0709 3.55444,0.68477 4.36991,1.84145 0.81543,1.15671 1.18699,2.43067 1.11467,3.82187 z" />
    <path
       inkscape:connector-curvature="0"
       id="path3020"
       style="font-size:37.47382736px;font-style:normal;font-variant:normal;font-weight:normal;font-stretch:normal;text-align:start;line-height:125%;letter-spacing:-2.1400001px;word-spacing:0px;text-anchor:start;fill:#2288a1;fill-opacity:1;stroke:none;font-family:Signika;-inkscape-font-specification:Signika"
       d="m 385.76248,543.00586 c -0.0204,-1.43888 0.14322,-2.8694 0.49104,-4.29157 0.34779,-1.42214 1.00249,-2.61074 1.9641,-3.5658 0.96158,-0.95502 2.35282,-1.4513 4.17372,-1.48885 1.80796,0.0376 3.18994,0.53383 4.14594,1.48885 0.95597,0.95506 1.60727,2.14366 1.95388,3.5658 0.34656,1.42217 0.50976,2.85269 0.48957,4.29157 0.0202,1.43932 -0.14301,2.87284 -0.48957,4.30057 -0.34661,1.42774 -0.99791,2.62191 -1.95388,3.58253 -0.956,0.96061 -2.33798,1.4599 -4.14594,1.49786 -1.8209,-0.0379 -3.21214,-0.53725 -4.17372,-1.49787 -0.96161,-0.96061 -1.61631,-2.15478 -1.9641,-3.58252 -0.34782,-1.42773 -0.51149,-2.86125 -0.49104,-4.30057 z m -4.41922,0 c -0.0189,1.93628 0.29511,3.8226 0.94205,5.65897 0.64693,1.83639 1.74022,3.36658 3.27989,4.5906 0.79489,0.63408 1.74023,1.13787 2.836,1.51138 1.09576,0.37349 2.4258,0.56459 3.99014,0.57328 1.56431,-0.008 2.89435,-0.19979 3.99013,-0.57328 1.09574,-0.37351 2.04108,-0.8773 2.836,-1.51138 1.53799,-1.22402 2.62471,-2.75421 3.26016,-4.5906 0.6354,-1.83637 0.94284,-3.72269 0.92232,-5.65897 0.0205,-1.91962 -0.28692,-3.79581 -0.92232,-5.62858 -0.63545,-1.83275 -1.72217,-3.3615 -3.26016,-4.58625 -0.79492,-0.63407 -1.74026,-1.13785 -2.836,-1.51138 -1.09578,-0.37348 -2.42583,-0.56457 -3.99013,-0.57328 -1.56434,0.008 -2.89438,0.1998 -3.99014,0.57328 -1.09577,0.37353 -2.04111,0.87731 -2.836,1.51138 -1.53967,1.22475 -2.63296,2.7535 -3.27989,4.58625 -0.64694,1.83277 -0.96096,3.70896 -0.94205,5.62858 z" />
    <path
       style="font-size:37.47382736px;font-style:normal;font-variant:normal;font-weight:normal;font-stretch:normal;line-height:125%;letter-spacing:-2.1400001px;word-spacing:0px;fill:#e64240;fill-opacity:1;stroke:none;font-family:Signika;-inkscape-font-specification:Signika"
       d="M 27.25 24.875 C 25.92242 24.877 24.59402 24.88285 23.28125 24.90625 C 21.96847 24.92965 20.59068 24.94955 19.125 24.96875 L 18.875 25.21875 L 18.875 48.78125 C 19.18244 48.83145 19.52976 48.85464 19.90625 48.875 C 20.28273 48.8955 20.63005 48.90705 20.9375 48.90625 C 21.28028 48.90696 21.62267 48.8946 22 48.875 C 22.3773 48.8544 22.73944 48.83141 23.0625 48.78125 L 23.0625 40.5 C 29.15284 41.73757 32.18279 40.44757 33.96875 38.6875 C 35.47788 37.20031 36.2352 34.92183 36.28125 32.4375 C 36.23275 29.89381 35.37019 28.00347 33.71875 26.75 C 32.06728 25.49654 29.92241 24.8722 27.25 24.875 z M 25.0625 27.71875 C 25.691044 27.707138 26.308795 27.704 27 27.71875 C 28.99997 27.76145 30.59208 28.25245 31.28125 29.28125 C 31.97039 30.31009 32.21872 31.4033 32.21875 32.5625 C 32.21877 33.70616 31.97039 34.80827 31.28125 35.84375 C 30.59208 36.87928 29.24999 37.45449 27.25 37.5 C 25.82106 37.5325 24.42421 37.52565 23.0625 37.53125 L 23.0625 27.75 C 23.78525 27.7308 24.433956 27.730362 25.0625 27.71875 z "
       transform="translate(305.55993,506.15051)"
       id="path3048" />
    <path
       inkscape:connector-curvature="0"
       id="path3015"
       style="font-size:37.47382736px;font-style:normal;font-variant:normal;font-weight:normal;font-stretch:normal;line-height:125%;letter-spacing:-2.1400001px;word-spacing:0px;fill:#e64240;fill-opacity:1;stroke:none;font-family:Signika;-inkscape-font-specification:Signika"
       d="m 352.97758,539.1145 c -0.23511,0.53782 -0.52446,1.22547 -0.86806,2.06293 -0.34362,0.8375 -0.63298,1.62069 -0.86806,2.34959 l -0.19729,0 c -0.24168,-0.72818 -0.50802,-1.47806 -0.79901,-2.2497 -0.29101,-0.77159 -0.57707,-1.46937 -0.8582,-2.09334 l -3.11714,-6.67091 c -0.24661,-0.55299 -0.54254,-0.95833 -0.88779,-1.21605 -0.34525,-0.25766 -0.79902,-0.38506 -1.36128,-0.38218 -0.41594,-7.1e-4 -0.84668,0.0528 -1.29223,0.16069 -0.44554,0.10787 -0.89601,0.27436 -1.35141,0.49945 l 7.49691,15.63493 0,7.6785 c 0.30661,0.0514 0.65022,0.0876 1.03082,0.10858 0.38059,0.0209 0.73407,0.0312 1.06042,0.0304 0.34031,7.2e-4 0.69542,-0.009 1.06534,-0.0304 0.36992,-0.021 0.72502,-0.0572 1.06535,-0.10858 l 0,-7.60901 7.49692,-15.77391 -0.19729,-0.24321 c -0.2976,-0.0875 -0.61983,-0.1556 -0.96671,-0.20413 -0.34692,-0.0485 -0.7086,-0.0731 -1.08508,-0.0738 -0.27868,-0.002 -0.56968,0.0102 -0.87299,0.0348 -0.30335,0.0247 -0.60421,0.0709 -0.90259,0.13897 z" />
  </g>
</svg>
